^C:\USERS\DOUG\DOCUMENTS\VISUAL STUDIO 2013\PROJECTS\LUMBERJACK\LUMBERJACK\STDAFX.CPP
C:\USERS\DOUG\DOCUMENTS\VISUAL STUDIO 2013\PROJECTS\LUMBERJACK\LUMBERJACK\DEBUG\LUMBERJACK.PCH
C:\USERS\DOUG\DOCUMENTS\VISUAL STUDIO 2013\PROJECTS\LUMBERJACK\LUMBERJACK\DEBUG\VC120.PDB
C:\USERS\DOUG\DOCUMENTS\VISUAL STUDIO 2013\PROJECTS\LUMBERJACK\LUMBERJACK\DEBUG\VC120.IDB
C:\USERS\DOUG\DOCUMENTS\VISUAL STUDIO 2013\PROJECTS\LUMBERJACK\LUMBERJACK\DEBUG\STDAFX.OBJ
^C:\USERS\DOUG\DOCUMENTS\VISUAL STUDIO 2012\PROJECTS\LIBRARIES\DHOOK\DHOOK.CPP|C:\USERS\DOUG\DOCUMENTS\VISUAL STUDIO 2013\PROJECTS\LUMBERJACK\LUMBERJACK\LUMBERJACK.CPP
C:\USERS\DOUG\DOCUMENTS\VISUAL STUDIO 2013\PROJECTS\LUMBERJACK\LUMBERJACK\DEBUG\VC120.PDB
C:\USERS\DOUG\DOCUMENTS\VISUAL STUDIO 2013\PROJECTS\LUMBERJACK\LUMBERJACK\DEBUG\VC120.IDB
C:\USERS\DOUG\DOCUMENTS\VISUAL STUDIO 2013\PROJECTS\LUMBERJACK\LUMBERJACK\DEBUG\DHOOK.OBJ
C:\USERS\DOUG\DOCUMENTS\VISUAL STUDIO 2013\PROJECTS\LUMBERJACK\LUMBERJACK\DEBUG\LUMBERJACK.OBJ
^C:\USERS\DOUG\DOCUMENTS\VISUAL STUDIO 2012\PROJECTS\LIBRARIES\DHOOK\DHOOK.CPP
C:\USERS\DOUG\DOCUMENTS\VISUAL STUDIO 2013\PROJECTS\LUMBERJACK\LUMBERJACK\DEBUG\VC120.PDB
C:\USERS\DOUG\DOCUMENTS\VISUAL STUDIO 2013\PROJECTS\LUMBERJACK\LUMBERJACK\DEBUG\VC120.IDB
C:\USERS\DOUG\DOCUMENTS\VISUAL STUDIO 2013\PROJECTS\LUMBERJACK\LUMBERJACK\DEBUG\DHOOK.OBJ
^C:\USERS\DOUG\DOCUMENTS\VISUAL STUDIO 2013\PROJECTS\LUMBERJACK\LUMBERJACK\LUMBERJACK.CPP
C:\USERS\DOUG\DOCUMENTS\VISUAL STUDIO 2013\PROJECTS\LUMBERJACK\LUMBERJACK\DEBUG\VC120.PDB
C:\USERS\DOUG\DOCUMENTS\VISUAL STUDIO 2013\PROJECTS\LUMBERJACK\LUMBERJACK\DEBUG\VC120.IDB
C:\USERS\DOUG\DOCUMENTS\VISUAL STUDIO 2013\PROJECTS\LUMBERJACK\LUMBERJACK\DEBUG\LUMBERJACK.OBJ
^C:\USERS\DOUG\DOCUMENTS\VISUAL STUDIO 2013\PROJECTS\LUMBERJACK\LUMBERJACK\DLLMAIN.CPP
C:\USERS\DOUG\DOCUMENTS\VISUAL STUDIO 2013\PROJECTS\LUMBERJACK\LUMBERJACK\DEBUG\VC120.PDB
C:\USERS\DOUG\DOCUMENTS\VISUAL STUDIO 2013\PROJECTS\LUMBERJACK\LUMBERJACK\DEBUG\VC120.IDB
C:\USERS\DOUG\DOCUMENTS\VISUAL STUDIO 2013\PROJECTS\LUMBERJACK\LUMBERJACK\DEBUG\DLLMAIN.OBJ
